^C:\USERS\WILLIAM\DROPBOX\IOOP\PROJECT2C_FINAL\PROJECT2C\PROJECT2B\GUI\GAMEGUI.RESX
^C:\USERS\WILLIAM\DROPBOX\IOOP\PROJECT2C_FINAL\PROJECT2C\PROJECT2B\PROPERTIES\RESOURCES.RESX
^C:\USERS\SUBHASH\DROPBOX\LOYOLA\IOOP\PROJECT2C_FINAL\PROJECT2C\PROJECT2B\GUI\GAMEGUI.RESX
^C:\USERS\SUBHASH\DROPBOX\LOYOLA\IOOP\PROJECT2C_FINAL\PROJECT2C\PROJECT2B\PROPERTIES\RESOURCES.RESX
