^C:\USERS\WILLIAM\DROPBOX\IOOP\PROJECT2C_FINAL\PROJECT2C\PROJECT2B\GUI\GAMEGUI.RESX|C:\USERS\WILLIAM\DROPBOX\IOOP\PROJECT2C_FINAL\PROJECT2C\PROJECT2B\PROPERTIES\RESOURCES.RESX
C:\USERS\WILLIAM\DROPBOX\IOOP\PROJECT2C_FINAL\PROJECT2C\PROJECT2B\OBJ\X86\DEBUG\PROJECT2B.GAMEGUI.RESOURCES
C:\USERS\WILLIAM\DROPBOX\IOOP\PROJECT2C_FINAL\PROJECT2C\PROJECT2B\OBJ\X86\DEBUG\PROJECT2B.PROPERTIES.RESOURCES.RESOURCES
^C:\USERS\SUBHASH\DROPBOX\LOYOLA\IOOP\PROJECT2C_FINAL\PROJECT2C\PROJECT2B\GUI\GAMEGUI.RESX|C:\USERS\SUBHASH\DROPBOX\LOYOLA\IOOP\PROJECT2C_FINAL\PROJECT2C\PROJECT2B\PROPERTIES\RESOURCES.RESX
C:\USERS\SUBHASH\DROPBOX\LOYOLA\IOOP\PROJECT2C_FINAL\PROJECT2C\PROJECT2B\OBJ\X86\DEBUG\PROJECT2B.GAMEGUI.RESOURCES
C:\USERS\SUBHASH\DROPBOX\LOYOLA\IOOP\PROJECT2C_FINAL\PROJECT2C\PROJECT2B\OBJ\X86\DEBUG\PROJECT2B.PROPERTIES.RESOURCES.RESOURCES
